<svg 
 xmlns="http://www.w3.org/2000/svg"
 xmlns:xlink="http://www.w3.org/1999/xlink"
 width="430px" height="221px">
<path fill-rule="evenodd"  stroke="rgb(0, 0, 0)" stroke-width="0px" stroke-linecap="butt" stroke-linejoin="miter" fill="rgb(247, 92, 3)"
 d="M22.999,0.0 L407.0,0.0 C419.702,0.0 429.999,10.297 429.999,23.0 L429.999,197.999 C429.999,210.702 419.702,220.999 407.0,220.999 L22.999,220.999 C10.297,220.999 0.0,210.702 0.0,197.999 L0.0,23.0 C0.0,10.297 10.297,0.0 22.999,0.0 Z"/>
<text kerning="auto" font-family="Myriad Pro" fill="rgb(0, 0, 0)" transform="matrix( 12.1865679631717, 0, 0, 12.1865679631717,65.2686805799611, 166.839555834273)" font-size="12.298px"><tspan font-size="12.298px" font-family="Arial Rounded MT Bold" fill="#FFFFFF">PUT</tspan></text>
</svg>